…
``` r
trans_ent = 
  read_csv(
    "./NYC_Transit_Subway_Entrance_And_Exit_Data.csv",
    col_types = cols(Route8 = "c", Route9 = "c", Route10 = "c", Route11 = "c")) %>%
  janitor::clean_names() %>%
  select(
    line, station_name, station_latitude, station_longitude, 
    starts_with("route"), entry, exit_only, vending, entrance_type, 
    ada) %>% 
  mutate(entry = ifelse(entry == "YES", TRUE, FALSE))

trans_ent
## # A tibble: 1,868 × 20
##    line     station_…¹ stati…² stati…³ route1 route2 route3 route4 route5 route6
##    <chr>    <chr>        <dbl>   <dbl> <chr>  <chr>  <chr>  <chr>  <chr>  <chr> 
##  1 4 Avenue 25th St       40.7   -74.0 R      <NA>   <NA>   <NA>   <NA>   <NA>  
##  2 4 Avenue 25th St       40.7   -74.0 R      <NA>   <NA>   <NA>   <NA>   <NA>  
##  3 4 Avenue 36th St       40.7   -74.0 N      R      <NA>   <NA>   <NA>   <NA>  
##  4 4 Avenue 36th St       40.7   -74.0 N      R      <NA>   <NA>   <NA>   <NA>  
##  5 4 Avenue 36th St       40.7   -74.0 N      R      <NA>   <NA>   <NA>   <NA>  
##  6 4 Avenue 45th St       40.6   -74.0 R      <NA>   <NA>   <NA>   <NA>   <NA>  
##  7 4 Avenue 45th St       40.6   -74.0 R      <NA>   <NA>   <NA>   <NA>   <NA>  
##  8 4 Avenue 45th St       40.6   -74.0 R      <NA>   <NA>   <NA>   <NA>   <NA>  
##  9 4 Avenue 45th St       40.6   -74.0 R      <NA>   <NA>   <NA>   <NA>   <NA>  
## 10 4 Avenue 53rd St       40.6   -74.0 R      <NA>   <NA>   <NA>   <NA>   <NA>  
## # … with 1,858 more rows, 10 more variables: route7 <chr>, route8 <chr>,
## #   route9 <chr>, route10 <chr>, route11 <chr>, entry <lgl>, exit_only <chr>,
## #   vending <chr>, entrance_type <chr>, ada <lgl>, and abbreviated variable
## #   names ¹​station_name, ²​station_latitude, ³​station_longitude
```
As it stands, these data are not “tidy”: route number should be a
variable, as should route. That is, to obtain a tidy dataset we would
need to convert `route` variables from wide to long format. This will be
useful when focusing on specific routes, but may not be necessary when
considering questions that focus on station-level variables.

The following code chunk selects station name and line, and then uses
`distinct()` to obtain all unique combinations. As a result, the number
of rows in this dataset is the number of unique stations.

``` r
trans_ent %>% 
  select(station_name, line) %>% 
  distinct
## # A tibble: 465 × 2
##    station_name             line    
##    <chr>                    <chr>   
##  1 25th St                  4 Avenue
##  2 36th St                  4 Avenue
##  3 45th St                  4 Avenue
##  4 53rd St                  4 Avenue
##  5 59th St                  4 Avenue
##  6 77th St                  4 Avenue
##  7 86th St                  4 Avenue
##  8 95th St                  4 Avenue
##  9 9th St                   4 Avenue
## 10 Atlantic Av-Barclays Ctr 4 Avenue
## # … with 455 more rows
```

The next code chunk is similar, but filters according to ADA compliance
as an initial step. This produces a dataframe in which the number of
rows is the number of ADA compliant stations.

``` r
trans_ent %>% 
  filter(ada == TRUE) %>% 
  select(station_name, line) %>% 
  distinct
## # A tibble: 84 × 2
##    station_name                   line           
##    <chr>                          <chr>          
##  1 Atlantic Av-Barclays Ctr       4 Avenue       
##  2 DeKalb Av                      4 Avenue       
##  3 Pacific St                     4 Avenue       
##  4 Grand Central                  42nd St Shuttle
##  5 34th St                        6 Avenue       
##  6 47-50th Sts Rockefeller Center 6 Avenue       
##  7 Church Av                      6 Avenue       
##  8 21st St                        63rd Street    
##  9 Lexington Av                   63rd Street    
## 10 Roosevelt Island               63rd Street    
## # … with 74 more rows
```
…
``` r
trans_ent %>% 
  pivot_longer(
    route1:route11,
    names_to = "route_num",
    values_to = "route") %>% 
  filter(route == "A") %>%  
  select(station_name, line) %>% 
  distinct
## # A tibble: 60 × 2
##    station_name                  line           
##    <chr>                         <chr>          
##  1 Times Square                  42nd St Shuttle
##  2 125th St                      8 Avenue       
##  3 145th St                      8 Avenue       
##  4 14th St                       8 Avenue       
##  5 168th St - Washington Heights 8 Avenue       
##  6 175th St                      8 Avenue       
##  7 181st St                      8 Avenue       
##  8 190th St                      8 Avenue       
##  9 34th St                       8 Avenue       
## 10 42nd St                       8 Avenue       
## # … with 50 more rows
…
trans_ent
## # A tibble: 1,868 × 20
##    line     station_…¹ stati…² stati…³ route1 route2 route3 route4 route5 route6
##    <chr>    <chr>        <dbl>   <dbl> <chr>  <chr>  <chr>  <chr>  <chr>  <chr> 
##  1 4 Avenue 25th St       40.7   -74.0 R      <NA>   <NA>   <NA>   <NA>   <NA>  
##  2 4 Avenue 25th St       40.7   -74.0 R      <NA>   <NA>   <NA>   <NA>   <NA>  
##  3 4 Avenue 36th St       40.7   -74.0 N      R      <NA>   <NA>   <NA>   <NA>  
##  4 4 Avenue 36th St       40.7   -74.0 N      R      <NA>   <NA>   <NA>   <NA>  
##  5 4 Avenue 36th St       40.7   -74.0 N      R      <NA>   <NA>   <NA>   <NA>  
##  6 4 Avenue 45th St       40.6   -74.0 R      <NA>   <NA>   <NA>   <NA>   <NA>  
##  7 4 Avenue 45th St       40.6   -74.0 R      <NA>   <NA>   <NA>   <NA>   <NA>  
##  8 4 Avenue 45th St       40.6   -74.0 R      <NA>   <NA>   <NA>   <NA>   <NA>  
##  9 4 Avenue 45th St       40.6   -74.0 R      <NA>   <NA>   <NA>   <NA>   <NA>  
## 10 4 Avenue 53rd St       40.6   -74.0 R      <NA>   <NA>   <NA>   <NA>   <NA>  
## # … with 1,858 more rows, 10 more variables: route7 <chr>, route8 <chr>,
## #   route9 <chr>, route10 <chr>, route11 <chr>, entry <lgl>, exit_only <chr>,
## #   vending <chr>, entrance_type <chr>, ada <lgl>, and abbreviated variable
## #   names ¹​station_name, ²​station_latitude, ³​station_longitude
```
…
